{
  "_meta": {
    "success": true,
    "code": 200,
    "message": "OK. Everything worked as expected.",
    "totalCount": 1829,
    "pageCount": 92,
    "currentPage": 1,
    "perPage": 20,
    "rateLimit": {
      "limit": 30,
      "remaining": 29,
      "reset": 2
    }
  },
  "result": [
    {
      "id": "11887",
      "first_name": "Roy",
      "last_name": "Huels",
      "gender": "male",
      "dob": "2003-03-03",
      "email": "aframi@example.com",
      "phone": "+1-764-384-3788",
      "website": "http://abernathy.com/",
      "address": "8257 Meredith Loop\nNorth Dolly, HI 27271-7149",
      "status": "inactive",
      "_links": {
        "self": {
          "href": "https://gorest.co.in/public-api/users/11887"
        },
        "edit": {
          "href": "https://gorest.co.in/public-api/users/11887"
        },
        "avatar": {
          "href": "https://lorempixel.com/250/250/people/?94560"
        }
      }
    },
    {
      "id": "11888",
      "first_name": "Sha",
      "last_name": "Frami",
      "gender": "female",
      "dob": "1965-10-16",
      "email": "simone13@example.com",
      "phone": "(474) 300-4457 x066",
      "website": "http://www.hilpert.net/iure-possimus-voluptatem-aut-praesentium-et",
      "address": "7075 Cronin Walk Suite 257\nNorth Candida, AR 30895-2872",
      "status": "inactive",
      "_links": {
        "self": {
          "href": "https://gorest.co.in/public-api/users/11888"
        },
        "edit": {
          "href": "https://gorest.co.in/public-api/users/11888"
        },
        "avatar": {
          "href": "https://lorempixel.com/250/250/people/?89696"
        }
      }
    },
    {
      "id": "11889",
      "first_name": "Violette",
      "last_name": "Haag",
      "gender": "female",
      "dob": "1923-12-26",
      "email": "jking@example.org",
      "phone": "1-563-588-6903",
      "website": "http://jerde.org/",
      "address": "4150 Volkman Street Apt. 958\nRunolfssonburgh, ND 85735-1556",
      "status": "inactive",
      "_links": {
        "self": {
          "href": "https://gorest.co.in/public-api/users/11889"
        },
        "edit": {
          "href": "https://gorest.co.in/public-api/users/11889"
        },
        "avatar": {
          "href": "https://lorempixel.com/250/250/people/?85510"
        }
      }
    },
    {
      "id": "11893",
      "first_name": "Anderson",
      "last_name": "Mayert",
      "gender": "male",
      "dob": "2013-12-18",
      "email": "gdaniel@example.net",
      "phone": "861.440.1702 x429",
      "website": "http://schuppe.info/quis-quidem-nam-est-voluptatem-repellat",
      "address": "4007 Hammes Walks Suite 789\nEast Bobby, IL 44582",
      "status": "inactive",
      "_links": {
        "self": {
          "href": "https://gorest.co.in/public-api/users/11893"
        },
        "edit": {
          "href": "https://gorest.co.in/public-api/users/11893"
        },
        "avatar": {
          "href": "https://lorempixel.com/250/250/people/?19282"
        }
      }
    },
    {
      "id": "11894",
      "first_name": "Zoey",
      "last_name": "Ernser",
      "gender": "female",
      "dob": "1931-01-29",
      "email": "collin.upton@example.com",
      "phone": "1-556-899-7582 x0471",
      "website": "http://fadel.biz/exercitationem-facere-voluptas-libero-ut-id-sed-labore.html",
      "address": "1210 Eloy Flats Suite 325\nEast Jared, GA 57864",
      "status": "inactive",
      "_links": {
        "self": {
          "href": "https://gorest.co.in/public-api/users/11894"
        },
        "edit": {
          "href": "https://gorest.co.in/public-api/users/11894"
        },
        "avatar": {
          "href": "https://lorempixel.com/250/250/people/?69753"
        }
      }
    },
    {
      "id": "11895",
      "first_name": "Clarabelle",
      "last_name": "Cartwright",
      "gender": "female",
      "dob": "1985-01-11",
      "email": "kemmer.keanu@example.net",
      "phone": "929-812-6858 x752",
      "website": "http://olson.com/corporis-ut-dolores-voluptatum",
      "address": "895 Cleveland Avenue Apt. 199\nNorth Newellfort, HI 76438",
      "status": "inactive",
      "_links": {
        "self": {
          "href": "https://gorest.co.in/public-api/users/11895"
        },
        "edit": {
          "href": "https://gorest.co.in/public-api/users/11895"
        },
        "avatar": {
          "href": "https://lorempixel.com/250/250/people/?98442"
        }
      }
    },
    {
      "id": "11897",
      "first_name": "Cullen",
      "last_name": "Grimes",
      "gender": "male",
      "dob": "1945-07-12",
      "email": "dubuque.demetrius@example.net",
      "phone": "597-249-5011",
      "website": "https://morar.com/laudantium-praesentium-amet-alias-maxime-qui-tempora-ipsum-mollitia.html",
      "address": "47715 Schroeder Passage\nDarefurt, CO 32946-8502",
      "status": "inactive",
      "_links": {
        "self": {
          "href": "https://gorest.co.in/public-api/users/11897"
        },
        "edit": {
          "href": "https://gorest.co.in/public-api/users/11897"
        },
        "avatar": {
          "href": "https://lorempixel.com/250/250/people/?35877"
        }
      }
    },
    {
      "id": "11898",
      "first_name": "Vicente",
      "last_name": "Feil",
      "gender": "male",
      "dob": "1947-10-08",
      "email": "adell.bernhard@example.com",
      "phone": "1-845-284-0064",
      "website": "http://www.waters.com/tempore-et-ipsa-rerum-numquam-voluptatem-ab-dolorem.html",
      "address": "6370 Connie Ridge\nPollichstad, NM 36832",
      "status": "inactive",
      "_links": {
        "self": {
          "href": "https://gorest.co.in/public-api/users/11898"
        },
        "edit": {
          "href": "https://gorest.co.in/public-api/users/11898"
        },
        "avatar": {
          "href": "https://lorempixel.com/250/250/people/?28636"
        }
      }
    },
    {
      "id": "11899",
      "first_name": "Nona",
      "last_name": "Jacobi",
      "gender": "female",
      "dob": "1940-07-25",
      "email": "uebert@example.com",
      "phone": "+1.609.615.4614",
      "website": "http://www.balistreri.com/commodi-ipsum-quas-aut-quos-qui-pariatur-et-quis",
      "address": "4567 Myrna Square Suite 872\nRosalynport, MA 14253",
      "status": "active",
      "_links": {
        "self": {
          "href": "https://gorest.co.in/public-api/users/11899"
        },
        "edit": {
          "href": "https://gorest.co.in/public-api/users/11899"
        },
        "avatar": {
          "href": "https://lorempixel.com/250/250/people/?47258"
        }
      }
    },
    {
      "id": "11900",
      "first_name": "Tremayne",
      "last_name": "Rohan",
      "gender": "male",
      "dob": "1952-06-17",
      "email": "dianna82@example.com",
      "phone": "+1.537.680.5623",
      "website": "http://wisozk.org/consequatur-asperiores-dignissimos-delectus-vel-dolor-repellendus-porro-dignissimos",
      "address": "863 Orlando Mission\nNorth Adelinemouth, UT 68787-1139",
      "status": "inactive",
      "_links": {
        "self": {
          "href": "https://gorest.co.in/public-api/users/11900"
        },
        "edit": {
          "href": "https://gorest.co.in/public-api/users/11900"
        },
        "avatar": {
          "href": "https://lorempixel.com/250/250/people/?95561"
        }
      }
    },
    {
      "id": "11901",
      "first_name": "Raquel",
      "last_name": "Wisozk",
      "gender": "female",
      "dob": "1951-09-10",
      "email": "mcorkery@example.com",
      "phone": "1-453-447-6580",
      "website": "http://www.welch.info/qui-voluptatem-rerum-natus-beatae-id-repudiandae",
      "address": "118 Patricia Neck Apt. 015\nNorth Retastad, CA 64776",
      "status": "active",
      "_links": {
        "self": {
          "href": "https://gorest.co.in/public-api/users/11901"
        },
        "edit": {
          "href": "https://gorest.co.in/public-api/users/11901"
        },
        "avatar": {
          "href": "https://lorempixel.com/250/250/people/?23624"
        }
      }
    },
    {
      "id": "11902",
      "first_name": "Chelsea",
      "last_name": "Jacobson",
      "gender": "female",
      "dob": "1996-07-26",
      "email": "madaline05@example.com",
      "phone": "+1-838-836-9384",
      "website": "https://www.gleichner.com/aliquam-quia-nemo-et-est-rerum-suscipit",
      "address": "7049 Schneider Fork Suite 546\nShaniaburgh, MN 70025-3512",
      "status": "inactive",
      "_links": {
        "self": {
          "href": "https://gorest.co.in/public-api/users/11902"
        },
        "edit": {
          "href": "https://gorest.co.in/public-api/users/11902"
        },
        "avatar": {
          "href": "https://lorempixel.com/250/250/people/?95549"
        }
      }
    },
    {
      "id": "11903",
      "first_name": "Mara",
      "last_name": "Doyle",
      "gender": "female",
      "dob": "2002-08-22",
      "email": "bhowell@example.org",
      "phone": "1-661-470-4952 x02356",
      "website": "https://www.feil.info/ut-unde-cumque-autem-cum-minus",
      "address": "501 Funk Centers Apt. 949\nWest Lemuel, NM 92694",
      "status": "inactive",
      "_links": {
        "self": {
          "href": "https://gorest.co.in/public-api/users/11903"
        },
        "edit": {
          "href": "https://gorest.co.in/public-api/users/11903"
        },
        "avatar": {
          "href": "https://lorempixel.com/250/250/people/?33894"
        }
      }
    },
    {
      "id": "11904",
      "first_name": "Aliyah",
      "last_name": "Kertzmann",
      "gender": "female",
      "dob": "1966-04-14",
      "email": "megane93@example.org",
      "phone": "+1-671-792-8886",
      "website": "http://www.glover.org/",
      "address": "922 Turner Extension Apt. 306\nGradyburgh, HI 20634",
      "status": "inactive",
      "_links": {
        "self": {
          "href": "https://gorest.co.in/public-api/users/11904"
        },
        "edit": {
          "href": "https://gorest.co.in/public-api/users/11904"
        },
        "avatar": {
          "href": "https://lorempixel.com/250/250/people/?71924"
        }
      }
    },
    {
      "id": "11905",
      "first_name": "Godfrey",
      "last_name": "Hill",
      "gender": "male",
      "dob": "2017-03-06",
      "email": "matilda67@example.org",
      "phone": "1-850-295-4462 x7530",
      "website": "http://www.schulist.com/nobis-et-eligendi-eveniet-rerum-sit-consequatur.html",
      "address": "302 Halvorson Groves\nWelchmouth, WV 86337",
      "status": "inactive",
      "_links": {
        "self": {
          "href": "https://gorest.co.in/public-api/users/11905"
        },
        "edit": {
          "href": "https://gorest.co.in/public-api/users/11905"
        },
        "avatar": {
          "href": "https://lorempixel.com/250/250/people/?54760"
        }
      }
    },
    {
      "id": "11906",
      "first_name": "Porter",
      "last_name": "Wolff",
      "gender": "male",
      "dob": "1970-10-15",
      "email": "dexter.langworth@example.net",
      "phone": "675-926-5269",
      "website": "http://conroy.net/nihil-et-est-voluptates-expedita-qui-aut",
      "address": "6663 Erwin Skyway\nWest Hildegardberg, NH 63090",
      "status": "active",
      "_links": {
        "self": {
          "href": "https://gorest.co.in/public-api/users/11906"
        },
        "edit": {
          "href": "https://gorest.co.in/public-api/users/11906"
        },
        "avatar": {
          "href": "https://lorempixel.com/250/250/people/?25531"
        }
      }
    },
    {
      "id": "11907",
      "first_name": "Alessandra",
      "last_name": "Harber",
      "gender": "female",
      "dob": "1992-01-24",
      "email": "megane.fisher@example.com",
      "phone": "+1.861.580.8569",
      "website": "https://www.fritsch.org/nulla-vitae-soluta-recusandae-et-fugit-ipsa",
      "address": "866 Schneider Cliff Apt. 900\nUllrichview, RI 23425",
      "status": "inactive",
      "_links": {
        "self": {
          "href": "https://gorest.co.in/public-api/users/11907"
        },
        "edit": {
          "href": "https://gorest.co.in/public-api/users/11907"
        },
        "avatar": {
          "href": "https://lorempixel.com/250/250/people/?33501"
        }
      }
    },
    {
      "id": "11908",
      "first_name": "Cade",
      "last_name": "Pouros",
      "gender": "male",
      "dob": "1933-02-20",
      "email": "schmidt.hardy@example.net",
      "phone": "(435) 527-1203",
      "website": "http://wolf.net/",
      "address": "93959 Heller Underpass\nLabadieshire, MD 83286",
      "status": "active",
      "_links": {
        "self": {
          "href": "https://gorest.co.in/public-api/users/11908"
        },
        "edit": {
          "href": "https://gorest.co.in/public-api/users/11908"
        },
        "avatar": {
          "href": "https://lorempixel.com/250/250/people/?48754"
        }
      }
    },
    {
      "id": "11909",
      "first_name": "Zaria",
      "last_name": "Haley",
      "gender": "female",
      "dob": "1997-04-19",
      "email": "koss.leilani@example.com",
      "phone": "296-675-3669",
      "website": "https://www.powlowski.net/sed-libero-natus-accusamus-eum",
      "address": "3803 Renee Plaza\nFerryton, MI 81992",
      "status": "inactive",
      "_links": {
        "self": {
          "href": "https://gorest.co.in/public-api/users/11909"
        },
        "edit": {
          "href": "https://gorest.co.in/public-api/users/11909"
        },
        "avatar": {
          "href": "https://lorempixel.com/250/250/people/?45465"
        }
      }
    },
    {
      "id": "11910",
      "first_name": "Chauncey",
      "last_name": "Ondricka",
      "gender": "male",
      "dob": "1933-06-23",
      "email": "sipes.terence@example.org",
      "phone": "+15036047691",
      "website": "http://www.dickens.info/est-hic-vel-eum-qui-cupiditate",
      "address": "334 Mills Walk Apt. 231\nDeckowtown, NM 82007-1087",
      "status": "inactive",
      "_links": {
        "self": {
          "href": "https://gorest.co.in/public-api/users/11910"
        },
        "edit": {
          "href": "https://gorest.co.in/public-api/users/11910"
        },
        "avatar": {
          "href": "https://lorempixel.com/250/250/people/?88167"
        }
      }
    }
  ]
}
